%YAML 1.1
%TAG !u! tag:unity3d.com,2011:
--- !u!114 &11400000
MonoBehaviour:
  m_ObjectHideFlags: 0
  m_CorrespondingSourceObject: {fileID: 0}
  m_PrefabInstance: {fileID: 0}
  m_PrefabAsset: {fileID: 0}
  m_GameObject: {fileID: 0}
  m_Enabled: 1
  m_EditorHideFlags: 0
  m_Script: {fileID: 11500000, guid: 95e66c6366d904e98bc83428217d4fd7, type: 3}
  m_Name: capsularotacion
  m_EditorClassIdentifier: 
  _data:
    _json: '{"graph":{"variables":{"Kind":"Flow","collection":{"$content":[{"name":"MoveSpeed","value":{"$content":0.0,"$type":"System.Single"},"typeHandle":{"Identification":"System.Single,
      mscorlib, Version=4.0.0.0, Culture=neutral, PublicKeyToken=b77a5c561934e089","$version":"A"},"$version":"A"},{"name":"MoveAxis","value":{"x":0.0,"y":0.0,"z":0.0,"$type":"UnityEngine.Vector3"},"typeHandle":{"Identification":"UnityEngine.Vector3,
      UnityEngine.CoreModule, Version=0.0.0.0, Culture=neutral, PublicKeyToken=null","$version":"A"},"$version":"A"},{"name":"RotationSpeed","value":{"$content":0.0,"$type":"System.Single"},"typeHandle":{"Identification":"System.Single,
      mscorlib, Version=4.0.0.0, Culture=neutral, PublicKeyToken=b77a5c561934e089","$version":"A"},"$version":"A"},{"name":"RotationAxis","value":{"x":0.0,"y":0.0,"z":0.0,"$type":"UnityEngine.Vector3"},"typeHandle":{"Identification":"UnityEngine.Vector3,
      UnityEngine.CoreModule, Version=0.0.0.0, Culture=neutral, PublicKeyToken=null","$version":"A"},"$version":"A"}],"$version":"A"},"$version":"A"},"controlInputDefinitions":[],"controlOutputDefinitions":[],"valueInputDefinitions":[],"valueOutputDefinitions":[],"title":null,"summary":null,"pan":{"x":125.9448,"y":268.5584},"zoom":0.8,"elements":[{"coroutine":false,"defaultValues":{},"position":{"x":-204.0,"y":60.0},"guid":"dc6565ca-e6fb-4148-b12e-9102b8ae6071","$version":"A","$type":"Unity.VisualScripting.Update","$id":"13"},{"chainable":false,"parameterNames":["vector","maxLength"],"member":{"name":"ClampMagnitude","parameterTypes":["UnityEngine.Vector3","System.Single"],"targetType":"UnityEngine.Vector3","targetTypeName":"UnityEngine.Vector3","$version":"A"},"defaultValues":{"%vector":{"x":0.0,"y":0.0,"z":0.0,"$type":"UnityEngine.Vector3"},"%maxLength":{"$content":1.0,"$type":"System.Single"}},"position":{"x":6.0,"y":61.0},"guid":"990c9dfd-2d25-44ea-bf2d-72d02eeb99ae","$version":"A","$type":"Unity.VisualScripting.InvokeMember","$id":"15"},{"specifyFallback":false,"kind":"Graph","defaultValues":{"name":{"$content":"RotationAxis","$type":"System.String"}},"position":{"x":-227.0,"y":179.0},"guid":"22d444d8-afdc-4aca-9b88-503d598cd6dd","$version":"A","$type":"Unity.VisualScripting.GetVariable","$id":"19"},{"specifyFallback":false,"kind":"Object","defaultValues":{"name":{"$content":"RotationSpeed","$type":"System.String"},"object":null},"position":{"x":-229.0,"y":278.0},"guid":"da2edbdf-f254-47f8-a904-11f2233577e4","$version":"A","$type":"Unity.VisualScripting.GetVariable","$id":"21"},{"defaultValues":{},"position":{"x":14.0,"y":254.0},"guid":"c2b1a134-8182-45e0-beaf-10b36ab563e9","$version":"A","$type":"Unity.VisualScripting.GenericMultiply","$id":"23"},{"defaultValues":{},"position":{"x":208.0,"y":171.0},"guid":"b5a9fc97-f981-4953-866c-19d1b9d578c5","$version":"A","$type":"Unity.VisualScripting.GenericMultiply","$id":"25"},{"member":{"name":"deltaTime","parameterTypes":null,"targetType":"UnityEngine.Time","targetTypeName":"UnityEngine.Time","$version":"A"},"defaultValues":{},"position":{"x":-230.0,"y":413.0},"guid":"89e97a3c-c76d-4904-8350-a06e8c62ea58","$version":"A","$type":"Unity.VisualScripting.GetMember","$id":"27"},{"chainable":false,"parameterNames":["eulers"],"member":{"name":"Rotate","parameterTypes":["UnityEngine.Vector3"],"targetType":"UnityEngine.Transform","targetTypeName":"UnityEngine.Transform","$version":"A"},"defaultValues":{"target":null,"%eulers":{"x":0.0,"y":0.0,"z":0.0,"$type":"UnityEngine.Vector3"}},"position":{"x":366.0,"y":61.0},"guid":"7c545ffb-db2f-45b3-a0c1-f531da8bd234","$version":"A","$type":"Unity.VisualScripting.InvokeMember","$id":"30"},{"sourceUnit":{"$ref":"13"},"sourceKey":"trigger","destinationUnit":{"$ref":"15"},"destinationKey":"enter","guid":"cf6374e9-dfe1-4715-8adb-ecdb974cb005","$type":"Unity.VisualScripting.ControlConnection"},{"sourceUnit":{"$ref":"15"},"sourceKey":"exit","destinationUnit":{"$ref":"30"},"destinationKey":"enter","guid":"85c27472-8187-4e10-8959-0fc9ea30dc36","$type":"Unity.VisualScripting.ControlConnection"},{"sourceUnit":{"$ref":"19"},"sourceKey":"value","destinationUnit":{"$ref":"15"},"destinationKey":"%vector","guid":"2b691f03-d5b4-4710-8171-31e7fc7555fb","$type":"Unity.VisualScripting.ValueConnection"},{"sourceUnit":{"$ref":"15"},"sourceKey":"result","destinationUnit":{"$ref":"25"},"destinationKey":"a","guid":"0ce7f075-f459-4cf6-acac-b386f0b0e0d2","$type":"Unity.VisualScripting.ValueConnection"},{"sourceUnit":{"$ref":"25"},"sourceKey":"product","destinationUnit":{"$ref":"30"},"destinationKey":"%eulers","guid":"d037bf73-ea51-4295-ab42-a98815924e1a","$type":"Unity.VisualScripting.ValueConnection"},{"sourceUnit":{"$ref":"23"},"sourceKey":"product","destinationUnit":{"$ref":"25"},"destinationKey":"b","guid":"53dc13ae-5ac5-43e1-be30-c065953d7df9","$type":"Unity.VisualScripting.ValueConnection"},{"sourceUnit":{"$ref":"27"},"sourceKey":"value","destinationUnit":{"$ref":"23"},"destinationKey":"b","guid":"4ddab276-d7da-4b52-a5df-edc3fe326c58","$type":"Unity.VisualScripting.ValueConnection"},{"sourceUnit":{"$ref":"21"},"sourceKey":"value","destinationUnit":{"$ref":"23"},"destinationKey":"a","guid":"25bbc6f8-b118-4c4f-b671-0ac6796ff93e","$type":"Unity.VisualScripting.ValueConnection"}],"$version":"A"}}'
    _objectReferences: []
