%YAML 1.1
%TAG !u! tag:unity3d.com,2011:
--- !u!114 &11400000
MonoBehaviour:
  m_ObjectHideFlags: 0
  m_CorrespondingSourceObject: {fileID: 0}
  m_PrefabInstance: {fileID: 0}
  m_PrefabAsset: {fileID: 0}
  m_GameObject: {fileID: 0}
  m_Enabled: 1
  m_EditorHideFlags: 0
  m_Script: {fileID: 11500000, guid: 95e66c6366d904e98bc83428217d4fd7, type: 3}
  m_Name: HelloWord
  m_EditorClassIdentifier: 
  _data:
    _json: '{"graph":{"variables":{"Kind":"Flow","collection":{"$content":[{"name":"Holiwi
      UwU","value":null,"typeHandle":{"Identification":null,"$version":"A"},"$version":"A"}],"$version":"A"},"$version":"A"},"controlInputDefinitions":[],"controlOutputDefinitions":[],"valueInputDefinitions":[],"valueOutputDefinitions":[],"title":null,"summary":null,"pan":{"x":-40.32684,"y":0.0},"zoom":1.0,"elements":[{"coroutine":false,"defaultValues":{},"position":{"x":-204.0,"y":60.0},"guid":"f51ba3af-c784-47c9-bfd7-fc2485b8b6aa","$version":"A","$type":"Unity.VisualScripting.Update","$id":"10"},{"chainable":false,"parameterNames":["message"],"member":{"name":"print","parameterTypes":["System.Object"],"targetType":"UnityEngine.MonoBehaviour","targetTypeName":"UnityEngine.MonoBehaviour","$version":"A"},"defaultValues":{},"position":{"x":189.0,"y":96.0},"guid":"5aebbfe6-088e-4397-a637-e55bf8081f8f","$version":"A","$type":"Unity.VisualScripting.InvokeMember","$id":"12"},{"specifyFallback":false,"kind":"Graph","defaultValues":{"name":{"$content":"Holiwi
      UwU","$type":"System.String"}},"position":{"x":-223.0,"y":173.0},"guid":"81ee8718-2b00-4bd7-8bf2-c1f2f6fc48eb","$version":"A","$type":"Unity.VisualScripting.GetVariable","$id":"16"},{"sourceUnit":{"$ref":"10"},"sourceKey":"trigger","destinationUnit":{"$ref":"12"},"destinationKey":"enter","guid":"02b35262-9563-4d51-b8d4-35c90e35acd1","$type":"Unity.VisualScripting.ControlConnection"},{"sourceUnit":{"$ref":"16"},"sourceKey":"value","destinationUnit":{"$ref":"12"},"destinationKey":"%message","guid":"79aeec1c-b708-4cea-9f87-2186d8e1fe8f","$type":"Unity.VisualScripting.ValueConnection"}],"$version":"A"}}'
    _objectReferences: []
